{
	"info": {
		"_postman_id": "041eb1f0-3ccc-44ec-a452-0108959933d9",
		"name": "s34",
		"schema": "https://schema.getpostman.com/json/collection/v2.1.0/collection.json",
		"_exporter_id": "27193812"
	},
	"item": [
		{
			"name": "discussion",
			"item": [
				{
					"name": "GET Show hello world",
					"request": {
						"method": "GET",
						"header": [],
						"url": {
							"raw": "localhost:4000/",
							"host": [
								"localhost"
							],
							"port": "4000",
							"path": [
								""
							]
						}
					},
					"response": []
				},
				{
					"name": "GET /hello",
					"request": {
						"method": "GET",
						"header": [],
						"url": {
							"raw": "localhost:4000/hello",
							"host": [
								"localhost"
							],
							"port": "4000",
							"path": [
								"hello"
							]
						}
					},
					"response": []
				},
				{
					"name": "POST greetings",
					"request": {
						"method": "POST",
						"header": [],
						"body": {
							"mode": "raw",
							"raw": "{\r\n    \"firstName\" : \"Pedro\",\r\n    \"lastName\" : \"Penduko\"\r\n}",
							"options": {
								"raw": {
									"language": "json"
								}
							}
						},
						"url": {
							"raw": "localhost:4000/hello",
							"host": [
								"localhost"
							],
							"port": "4000",
							"path": [
								"hello"
							]
						}
					},
					"response": []
				},
				{
					"name": "POST signup",
					"request": {
						"method": "POST",
						"header": [],
						"body": {
							"mode": "raw",
							"raw": "{\r\n    \"username\" : \"pedropenduko\",\r\n    \"password\" : \"pedrosakalam\"\r\n}",
							"options": {
								"raw": {
									"language": "json"
								}
							}
						},
						"url": {
							"raw": "localhost:4000/signup",
							"host": [
								"localhost"
							],
							"port": "4000",
							"path": [
								"signup"
							]
						}
					},
					"response": []
				},
				{
					"name": "New Request",
					"request": {
						"method": "PUT",
						"header": [],
						"body": {
							"mode": "raw",
							"raw": "{\r\n    \"username\" : \"pedropenduko\",\r\n    \"password\" : \"pedrosakalam\"\r\n}",
							"options": {
								"raw": {
									"language": "json"
								}
							}
						},
						"url": {
							"raw": "localhost:4000/change-password",
							"host": [
								"localhost"
							],
							"port": "4000",
							"path": [
								"change-password"
							]
						}
					},
					"response": []
				},
				{
					"name": "GET /home",
					"protocolProfileBehavior": {
						"disableBodyPruning": true
					},
					"request": {
						"method": "GET",
						"header": [],
						"body": {
							"mode": "raw",
							"raw": "",
							"options": {
								"raw": {
									"language": "json"
								}
							}
						},
						"url": {
							"raw": "localhost:4000/home",
							"host": [
								"localhost"
							],
							"port": "4000",
							"path": [
								"home"
							]
						}
					},
					"response": []
				},
				{
					"name": "GET /users",
					"protocolProfileBehavior": {
						"disableBodyPruning": true
					},
					"request": {
						"method": "GET",
						"header": [],
						"body": {
							"mode": "raw",
							"raw": "",
							"options": {
								"raw": {
									"language": "json"
								}
							}
						},
						"url": {
							"raw": "localhost:4000/users",
							"host": [
								"localhost"
							],
							"port": "4000",
							"path": [
								"users"
							]
						}
					},
					"response": []
				},
				{
					"name": "DELETE /delete-user",
					"request": {
						"method": "DELETE",
						"header": [],
						"body": {
							"mode": "raw",
							"raw": "",
							"options": {
								"raw": {
									"language": "json"
								}
							}
						},
						"url": {
							"raw": "localhost:4000/delete-user",
							"host": [
								"localhost"
							],
							"port": "4000",
							"path": [
								"delete-user"
							]
						}
					},
					"response": []
				}
			]
		}
	]
}