{
	"productId" : 1,
	"name" : "Honda Civic Type-R",
	"description" : "sedan",
	"price" : 4500000,
	"stock" : 10,
	"isActive" : true,
	"stockKeepingUnit" : 1231230
}

{
	"productId" : 2,
	"name" : "Acura NSX Type-S",
	"description" : "sports car",
	"price" : 9200000,
	"stock" : 3,
	"isActive" : true,
	"stockKeepingUnit" : 4564561
}

{
	"productId" : 3,
	"name" : "Subaru BRZ",
	"description" : "sports car",
	"price" : 2500000,
	"stock" : 8,
	"isActive" : true,
	"stockKeepingUnit" : 7897892
}

{
	"productId" : 4,
	"name" : "Ford Ranger - Raptor",
	"description" : "pickup",
	"price" : 2800000,
	"stock" : 0,
	"isActive" : false,
	"stockKeepingUnit" : 4567891
}