{
	"info": {
		"_postman_id": "897b111c-3c47-4ae6-ac6f-d83537fe3650",
		"name": "s33",
		"schema": "https://schema.getpostman.com/json/collection/v2.1.0/collection.json",
		"_exporter_id": "27193812"
	},
	"item": [
		{
			"name": "discussion",
			"item": [
				{
					"name": "GET example",
					"request": {
						"method": "GET",
						"header": [],
						"url": {
							"raw": "https://official-joke-api.appspot.com/jokes/programming/random",
							"protocol": "https",
							"host": [
								"official-joke-api",
								"appspot",
								"com"
							],
							"path": [
								"jokes",
								"programming",
								"random"
							]
						}
					},
					"response": []
				},
				{
					"name": "GET post",
					"request": {
						"method": "GET",
						"header": [],
						"url": {
							"raw": "https://jsonplaceholder.typicode.com/posts",
							"protocol": "https",
							"host": [
								"jsonplaceholder",
								"typicode",
								"com"
							],
							"path": [
								"posts"
							]
						}
					},
					"response": []
				},
				{
					"name": "GET specific post",
					"request": {
						"method": "GET",
						"header": [],
						"url": {
							"raw": "https://jsonplaceholder.typicode.com/posts/2",
							"protocol": "https",
							"host": [
								"jsonplaceholder",
								"typicode",
								"com"
							],
							"path": [
								"posts",
								"2"
							]
						}
					},
					"response": []
				},
				{
					"name": "POST create task",
					"request": {
						"method": "POST",
						"header": [
							{
								"key": "Content-Type",
								"value": "application/json",
								"type": "text"
							}
						],
						"body": {
							"mode": "raw",
							"raw": "{\r\n    \"title\" : \"My First Blog Post\",\r\n    \"body\" : \"Hello World\",\r\n    \"id\" : 1\r\n}",
							"options": {
								"raw": {
									"language": "json"
								}
							}
						},
						"url": {
							"raw": "https://jsonplaceholder.typicode.com/posts",
							"protocol": "https",
							"host": [
								"jsonplaceholder",
								"typicode",
								"com"
							],
							"path": [
								"posts"
							]
						}
					},
					"response": []
				},
				{
					"name": "PUT new request",
					"request": {
						"method": "PUT",
						"header": [
							{
								"key": "Content-Type",
								"value": "application/json",
								"type": "text"
							}
						],
						"body": {
							"mode": "raw",
							"raw": "{\r\n    \"title\" : \"Hello\"\r\n}"
						},
						"url": {
							"raw": "https://jsonplaceholder.typicode.com/posts/1",
							"protocol": "https",
							"host": [
								"jsonplaceholder",
								"typicode",
								"com"
							],
							"path": [
								"posts",
								"1"
							]
						}
					},
					"response": []
				},
				{
					"name": "PATCH update specific property",
					"request": {
						"method": "PATCH",
						"header": [
							{
								"key": "Content-Type",
								"value": "application/json",
								"type": "text"
							}
						],
						"body": {
							"mode": "raw",
							"raw": "{\r\n    \"title\" : \"Hello\"\r\n}"
						},
						"url": {
							"raw": "https://jsonplaceholder.typicode.com/posts/1",
							"protocol": "https",
							"host": [
								"jsonplaceholder",
								"typicode",
								"com"
							],
							"path": [
								"posts",
								"1"
							]
						}
					},
					"response": []
				},
				{
					"name": "DELETE specific task",
					"request": {
						"method": "DELETE",
						"header": [
							{
								"key": "Content-Type",
								"value": "application/json",
								"type": "text"
							}
						],
						"body": {
							"mode": "raw",
							"raw": ""
						},
						"url": {
							"raw": "https://jsonplaceholder.typicode.com/posts/1?",
							"protocol": "https",
							"host": [
								"jsonplaceholder",
								"typicode",
								"com"
							],
							"path": [
								"posts",
								"1"
							],
							"query": [
								{
									"key": "",
									"value": null
								}
							]
						}
					},
					"response": []
				}
			]
		},
		{
			"name": "activity",
			"item": [
				{
					"name": "getAllToDo",
					"protocolProfileBehavior": {
						"disableBodyPruning": true
					},
					"request": {
						"method": "GET",
						"header": [],
						"body": {
							"mode": "raw",
							"raw": "",
							"options": {
								"raw": {
									"language": "json"
								}
							}
						},
						"url": {
							"raw": "https://jsonplaceholder.typicode.com/todos",
							"protocol": "https",
							"host": [
								"jsonplaceholder",
								"typicode",
								"com"
							],
							"path": [
								"todos"
							]
						}
					},
					"response": []
				},
				{
					"name": "getSpecificToDo",
					"protocolProfileBehavior": {
						"disableBodyPruning": true
					},
					"request": {
						"method": "GET",
						"header": [],
						"body": {
							"mode": "raw",
							"raw": "",
							"options": {
								"raw": {
									"language": "json"
								}
							}
						},
						"url": {
							"raw": "https://jsonplaceholder.typicode.com/todos/1",
							"protocol": "https",
							"host": [
								"jsonplaceholder",
								"typicode",
								"com"
							],
							"path": [
								"todos",
								"1"
							]
						}
					},
					"response": []
				},
				{
					"name": "createToDo",
					"request": {
						"method": "POST",
						"header": [
							{
								"key": "Content-Type",
								"value": "application/json",
								"type": "text"
							}
						],
						"body": {
							"mode": "raw",
							"raw": "{\r\n    \"title\" : \"Created To Do List Item\"\r\n}"
						},
						"url": {
							"raw": "https://jsonplaceholder.typicode.com/todos",
							"protocol": "https",
							"host": [
								"jsonplaceholder",
								"typicode",
								"com"
							],
							"path": [
								"todos"
							]
						}
					},
					"response": []
				},
				{
					"name": "updateToDo",
					"request": {
						"method": "PUT",
						"header": [
							{
								"key": "Content-Type",
								"value": "application/json",
								"type": "text"
							}
						],
						"body": {
							"mode": "raw",
							"raw": "{\r\n    \"title\" : \"Updated To Do List Item\"\r\n}"
						},
						"url": {
							"raw": "https://jsonplaceholder.typicode.com/todos/1",
							"protocol": "https",
							"host": [
								"jsonplaceholder",
								"typicode",
								"com"
							],
							"path": [
								"todos",
								"1"
							]
						}
					},
					"response": []
				},
				{
					"name": "deleteToDo",
					"request": {
						"method": "DELETE",
						"header": [],
						"url": {
							"raw": "https://jsonplaceholder.typicode.com/todos/1",
							"protocol": "https",
							"host": [
								"jsonplaceholder",
								"typicode",
								"com"
							],
							"path": [
								"todos",
								"1"
							]
						}
					},
					"response": []
				}
			]
		}
	]
}